Timestamp,Please enter your six character ID:,Please select yours child's age (in months):,Please choose the words that you expect your child to already know:
1/25/2018 9:27:38,12345,17,"cat, dog, duck, fish, kitty","truck,balloon,book,bubbles,apple,banana,cheese,cookie","diaper,hat","nose,ear,eye,baby,cup"
2/2/2018 10:25:07,EF4RTS,18,"dog, shoe, baby, eye, bird"
2/2/2018 10:25:29,IJ812,17,"ball, dog, shoe, baby, duck, book, eye, bird, nose, cat, apple, balloon"